{"attributes":{"description":"","kibanaSavedObjectMeta":{"searchSourceJSON":"{\"query\":{\"query\":\"\",\"language\":\"kuery\"},\"filter\":[]}"},"title":"MCStatsTitle","uiStateJSON":"{}","version":1,"visState":"{\"title\":\"MCStatsTitle\",\"type\":\"markdown\",\"aggs\":[],\"params\":{\"fontSize\":18,\"openLinksInNewTab\":false,\"markdown\":\"# MC Stats Dashboard \"}}"},"id":"e5873430-fd10-11ec-9972-5d25b69972ed","migrationVersion":{"visualization":"7.10.0"},"references":[],"type":"visualization","updated_at":"2022-07-12T09:17:17.568Z","version":"WzMwMzAwLDhd"}
{"attributes":{"description":"","kibanaSavedObjectMeta":{"searchSourceJSON":"{\"query\":{\"query\":\"\",\"language\":\"kuery\"},\"filter\":[]}"},"title":"Avg Errors by Job (MC)","uiStateJSON":"{}","version":1,"visState":"{\"title\":\"Avg Errors by Job (MC)\",\"type\":\"metrics\",\"aggs\":[],\"params\":{\"id\":\"61ca57f0-469d-11e7-af02-69e470af7417\",\"type\":\"metric\",\"series\":[{\"id\":\"61ca57f1-469d-11e7-af02-69e470af7417\",\"color\":\"#68BC00\",\"split_mode\":\"terms\",\"split_color_mode\":\"kibana\",\"metrics\":[{\"id\":\"71b0f7d0-fd10-11ec-a3ec-9b3e13d6872a\",\"type\":\"sum\",\"field\":\"Error\"},{\"id\":\"877468e0-fd10-11ec-a3ec-9b3e13d6872a\",\"type\":\"series_agg\",\"function\":\"mean\"}],\"separate_axis\":0,\"axis_position\":\"right\",\"formatter\":\"number\",\"chart_type\":\"line\",\"line_width\":1,\"point_size\":1,\"fill\":0.5,\"stacked\":\"none\",\"label\":\"Average number of Errors by Job\",\"type\":\"timeseries\",\"terms_field\":\"JobID.keyword\",\"terms_size\":\"10000000\",\"terms_direction\":\"desc\",\"terms_order_by\":\"61ca57f2-469d-11e7-af02-69e470af7417\"}],\"time_field\":\"timestamp\",\"index_pattern\":\"mcstats-testindex*\",\"interval\":\"\",\"axis_position\":\"left\",\"axis_formatter\":\"number\",\"axis_scale\":\"normal\",\"show_legend\":1,\"show_grid\":1,\"tooltip_mode\":\"show_all\",\"default_index_pattern\":\"dirac-certification_wmshistory_index-*\",\"default_timefield\":\"timestamp\",\"isModelInvalid\":false,\"background_color_rules\":[{\"id\":\"d044a860-fd0f-11ec-a3ec-9b3e13d6872a\"}],\"bar_color_rules\":[{\"id\":\"db49daf0-fd0f-11ec-a3ec-9b3e13d6872a\"}],\"pivot_id\":\"JobID.keyword\",\"pivot_type\":\"string\",\"drop_last_bucket\":1,\"time_range_mode\":\"entire_time_range\"}}"},"id":"b5bf25f0-fd10-11ec-9035-116e009bd0a8","migrationVersion":{"visualization":"7.10.0"},"references":[],"type":"visualization","updated_at":"2022-07-12T09:15:52.175Z","version":"WzMwMjU5LDhd"}
{"attributes":{"description":"","kibanaSavedObjectMeta":{"searchSourceJSON":"{\"query\":{\"query\":\"\",\"language\":\"kuery\"},\"filter\":[],\"indexRefName\":\"kibanaSavedObjectMeta.searchSourceJSON.index\"}"},"title":"Frequency of errors by type (MC)","uiStateJSON":"{}","version":1,"visState":"{\"title\":\"Frequency of errors by type (MC)\",\"type\":\"area\",\"aggs\":[{\"id\":\"1\",\"enabled\":true,\"type\":\"count\",\"params\":{},\"schema\":\"metric\"},{\"id\":\"2\",\"enabled\":true,\"type\":\"terms\",\"params\":{\"field\":\"Type.keyword\",\"orderBy\":\"1\",\"order\":\"desc\",\"size\":5,\"otherBucket\":false,\"otherBucketLabel\":\"Other\",\"missingBucket\":false,\"missingBucketLabel\":\"Missing\"},\"schema\":\"segment\"},{\"id\":\"3\",\"enabled\":true,\"type\":\"terms\",\"params\":{\"field\":\"Type.keyword\",\"orderBy\":\"1\",\"order\":\"desc\",\"size\":5,\"otherBucket\":false,\"otherBucketLabel\":\"Other\",\"missingBucket\":false,\"missingBucketLabel\":\"Missing\"},\"schema\":\"group\"}],\"params\":{\"type\":\"area\",\"grid\":{\"categoryLines\":false},\"categoryAxes\":[{\"id\":\"CategoryAxis-1\",\"type\":\"category\",\"position\":\"left\",\"show\":true,\"style\":{},\"scale\":{\"type\":\"linear\"},\"labels\":{\"show\":true,\"filter\":true,\"truncate\":100},\"title\":{}}],\"valueAxes\":[{\"id\":\"ValueAxis-1\",\"name\":\"BottomAxis-1\",\"type\":\"value\",\"position\":\"bottom\",\"show\":true,\"style\":{},\"scale\":{\"type\":\"linear\",\"mode\":\"normal\"},\"labels\":{\"show\":true,\"rotate\":0,\"filter\":false,\"truncate\":100},\"title\":{\"text\":\"Count\"}}],\"seriesParams\":[{\"show\":true,\"type\":\"histogram\",\"mode\":\"stacked\",\"data\":{\"label\":\"Count\",\"id\":\"1\"},\"drawLinesBetweenPoints\":true,\"lineWidth\":2,\"showCircles\":true,\"interpolate\":\"linear\",\"valueAxis\":\"ValueAxis-1\"}],\"addTooltip\":true,\"addLegend\":true,\"legendPosition\":\"right\",\"times\":[],\"addTimeMarker\":false,\"thresholdLine\":{\"show\":false,\"value\":10,\"width\":1,\"style\":\"full\",\"color\":\"#E7664C\"},\"labels\":{}}}"},"id":"11e59520-fd12-11ec-9a90-254c4fa54ea5","migrationVersion":{"visualization":"7.10.0"},"references":[{"id":"32b297d0-fd0d-11ec-9a90-254c4fa54ea5","name":"kibanaSavedObjectMeta.searchSourceJSON.index","type":"index-pattern"}],"type":"visualization","updated_at":"2022-07-12T09:16:09.290Z","version":"WzMwMjY4LDhd"}
{"attributes":{"description":"","kibanaSavedObjectMeta":{"searchSourceJSON":"{\"query\":{\"query\":\"\",\"language\":\"kuery\"},\"filter\":[]}"},"title":"Avg Errors by Production (MC)","uiStateJSON":"{}","version":1,"visState":"{\"title\":\"Avg Errors by Production (MC)\",\"type\":\"metrics\",\"aggs\":[],\"params\":{\"id\":\"61ca57f0-469d-11e7-af02-69e470af7417\",\"type\":\"metric\",\"series\":[{\"id\":\"61ca57f1-469d-11e7-af02-69e470af7417\",\"color\":\"#68BC00\",\"split_mode\":\"terms\",\"split_color_mode\":\"kibana\",\"metrics\":[{\"id\":\"71b0f7d0-fd10-11ec-a3ec-9b3e13d6872a\",\"type\":\"sum\",\"field\":\"Error\"},{\"id\":\"877468e0-fd10-11ec-a3ec-9b3e13d6872a\",\"type\":\"series_agg\",\"function\":\"mean\"}],\"separate_axis\":0,\"axis_position\":\"right\",\"formatter\":\"number\",\"chart_type\":\"line\",\"line_width\":1,\"point_size\":1,\"fill\":0.5,\"stacked\":\"none\",\"label\":\"Average number of Errors by Production\",\"type\":\"timeseries\",\"terms_field\":\"ProductionID\",\"terms_size\":\"10000000\",\"terms_direction\":\"desc\",\"terms_order_by\":\"61ca57f2-469d-11e7-af02-69e470af7417\"}],\"time_field\":\"timestamp\",\"index_pattern\":\"mcstats-testindex*\",\"interval\":\"\",\"axis_position\":\"left\",\"axis_formatter\":\"number\",\"axis_scale\":\"normal\",\"show_legend\":1,\"show_grid\":1,\"tooltip_mode\":\"show_all\",\"default_index_pattern\":\"dirac-certification_wmshistory_index-*\",\"default_timefield\":\"timestamp\",\"isModelInvalid\":false,\"background_color_rules\":[{\"id\":\"d044a860-fd0f-11ec-a3ec-9b3e13d6872a\"}],\"bar_color_rules\":[{\"id\":\"db49daf0-fd0f-11ec-a3ec-9b3e13d6872a\"}],\"pivot_id\":\"JobID.keyword\",\"pivot_type\":\"string\",\"drop_last_bucket\":1,\"time_range_mode\":\"entire_time_range\"}}"},"id":"c2b441a0-fd10-11ec-9035-116e009bd0a8","migrationVersion":{"visualization":"7.10.0"},"references":[],"type":"visualization","updated_at":"2022-07-12T09:16:21.271Z","version":"WzMwMjc1LDhd"}
{"attributes":{"description":"","kibanaSavedObjectMeta":{"searchSourceJSON":"{\"query\":{\"query\":\"\",\"language\":\"kuery\"},\"filter\":[],\"indexRefName\":\"kibanaSavedObjectMeta.searchSourceJSON.index\"}"},"title":"Pie chart type of errors (MC)","uiStateJSON":"{}","version":1,"visState":"{\"title\":\"Pie chart type of errors (MC)\",\"type\":\"pie\",\"aggs\":[{\"id\":\"1\",\"enabled\":true,\"type\":\"count\",\"params\":{},\"schema\":\"metric\"},{\"id\":\"2\",\"enabled\":true,\"type\":\"terms\",\"params\":{\"field\":\"Type.keyword\",\"orderBy\":\"1\",\"order\":\"desc\",\"size\":5,\"otherBucket\":false,\"otherBucketLabel\":\"Other\",\"missingBucket\":false,\"missingBucketLabel\":\"Missing\"},\"schema\":\"segment\"}],\"params\":{\"type\":\"pie\",\"addTooltip\":true,\"addLegend\":true,\"legendPosition\":\"right\",\"isDonut\":true,\"labels\":{\"show\":true,\"values\":true,\"last_level\":true,\"truncate\":100},\"row\":true}}"},"id":"48bfa2c0-fd12-11ec-9035-116e009bd0a8","migrationVersion":{"visualization":"7.10.0"},"references":[{"id":"32b297d0-fd0d-11ec-9a90-254c4fa54ea5","name":"kibanaSavedObjectMeta.searchSourceJSON.index","type":"index-pattern"}],"type":"visualization","updated_at":"2022-07-12T09:16:33.891Z","version":"WzMwMjg3LDhd"}
{"attributes":{"description":"","kibanaSavedObjectMeta":{"searchSourceJSON":"{\"query\":{\"query\":\"\",\"language\":\"kuery\"},\"filter\":[],\"indexRefName\":\"kibanaSavedObjectMeta.searchSourceJSON.index\"}"},"title":"Errors by Production (MC)","uiStateJSON":"{}","version":1,"visState":"{\"title\":\"Errors by Production (MC)\",\"type\":\"area\",\"aggs\":[{\"id\":\"1\",\"enabled\":true,\"type\":\"count\",\"params\":{},\"schema\":\"metric\"},{\"id\":\"2\",\"enabled\":true,\"type\":\"terms\",\"params\":{\"field\":\"ProductionID\",\"orderBy\":\"1\",\"order\":\"desc\",\"size\":20,\"otherBucket\":false,\"otherBucketLabel\":\"Other\",\"missingBucket\":false,\"missingBucketLabel\":\"Missing\"},\"schema\":\"segment\"},{\"id\":\"3\",\"enabled\":true,\"type\":\"terms\",\"params\":{\"field\":\"Type.keyword\",\"orderBy\":\"1\",\"order\":\"desc\",\"size\":5,\"otherBucket\":false,\"otherBucketLabel\":\"Other\",\"missingBucket\":false,\"missingBucketLabel\":\"Missing\"},\"schema\":\"group\"}],\"params\":{\"type\":\"area\",\"grid\":{\"categoryLines\":false},\"categoryAxes\":[{\"id\":\"CategoryAxis-1\",\"type\":\"category\",\"position\":\"bottom\",\"show\":true,\"style\":{},\"scale\":{\"type\":\"linear\"},\"labels\":{\"show\":true,\"filter\":true,\"truncate\":100},\"title\":{}}],\"valueAxes\":[{\"id\":\"ValueAxis-1\",\"name\":\"LeftAxis-1\",\"type\":\"value\",\"position\":\"left\",\"show\":true,\"style\":{},\"scale\":{\"type\":\"linear\",\"mode\":\"normal\"},\"labels\":{\"show\":true,\"rotate\":0,\"filter\":false,\"truncate\":100},\"title\":{\"text\":\"Count\"}}],\"seriesParams\":[{\"show\":true,\"type\":\"histogram\",\"mode\":\"stacked\",\"data\":{\"label\":\"Count\",\"id\":\"1\"},\"drawLinesBetweenPoints\":true,\"lineWidth\":2,\"showCircles\":true,\"interpolate\":\"linear\",\"valueAxis\":\"ValueAxis-1\"}],\"addTooltip\":true,\"addLegend\":true,\"legendPosition\":\"right\",\"times\":[],\"addTimeMarker\":false,\"thresholdLine\":{\"show\":false,\"value\":10,\"width\":1,\"style\":\"full\",\"color\":\"#E7664C\"},\"labels\":{}}}"},"id":"87d9cf80-fd12-11ec-9035-116e009bd0a8","migrationVersion":{"visualization":"7.10.0"},"references":[{"id":"32b297d0-fd0d-11ec-9a90-254c4fa54ea5","name":"kibanaSavedObjectMeta.searchSourceJSON.index","type":"index-pattern"}],"type":"visualization","updated_at":"2022-07-12T09:16:45.154Z","version":"WzMwMjk0LDhd"}
{"attributes":{"description":"","hits":0,"kibanaSavedObjectMeta":{"searchSourceJSON":"{\"query\":{\"language\":\"kuery\",\"query\":\"\"},\"filter\":[]}"},"optionsJSON":"{\"hidePanelTitles\":false,\"useMargins\":true}","panelsJSON":"[{\"version\":\"7.10.2\",\"gridData\":{\"x\":19,\"y\":0,\"w\":13,\"h\":6,\"i\":\"8c67c5cd-bccc-41b0-b0f3-51b3705aceaf\"},\"panelIndex\":\"8c67c5cd-bccc-41b0-b0f3-51b3705aceaf\",\"embeddableConfig\":{},\"panelRefName\":\"panel_0\"},{\"version\":\"7.10.2\",\"gridData\":{\"x\":0,\"y\":6,\"w\":24,\"h\":15,\"i\":\"74f6244a-2b73-45da-9f7f-67ea86f810e2\"},\"panelIndex\":\"74f6244a-2b73-45da-9f7f-67ea86f810e2\",\"embeddableConfig\":{},\"panelRefName\":\"panel_1\"},{\"version\":\"7.10.2\",\"gridData\":{\"x\":24,\"y\":6,\"w\":24,\"h\":15,\"i\":\"a777bee3-f015-44a1-a095-23aa5eb9e715\"},\"panelIndex\":\"a777bee3-f015-44a1-a095-23aa5eb9e715\",\"embeddableConfig\":{},\"panelRefName\":\"panel_2\"},{\"version\":\"7.10.2\",\"gridData\":{\"x\":0,\"y\":21,\"w\":24,\"h\":15,\"i\":\"45dd3f76-9e2d-49ac-9222-9663f7858302\"},\"panelIndex\":\"45dd3f76-9e2d-49ac-9222-9663f7858302\",\"embeddableConfig\":{},\"panelRefName\":\"panel_3\"},{\"version\":\"7.10.2\",\"gridData\":{\"x\":24,\"y\":21,\"w\":24,\"h\":15,\"i\":\"6de36334-3ced-4d64-a193-27f8670b75a8\"},\"panelIndex\":\"6de36334-3ced-4d64-a193-27f8670b75a8\",\"embeddableConfig\":{},\"panelRefName\":\"panel_4\"},{\"version\":\"7.10.2\",\"gridData\":{\"x\":12,\"y\":36,\"w\":24,\"h\":15,\"i\":\"e66907cc-b22e-4f87-9486-775436544724\"},\"panelIndex\":\"e66907cc-b22e-4f87-9486-775436544724\",\"embeddableConfig\":{},\"panelRefName\":\"panel_5\"}]","refreshInterval":{"pause":true,"value":0},"timeFrom":"now-1y","timeRestore":true,"timeTo":"now","title":"MC Stats Dashboard","version":1},"id":"cc3854e0-fc80-11ec-9a90-254c4fa54ea5","migrationVersion":{"dashboard":"7.9.3"},"references":[{"id":"e5873430-fd10-11ec-9972-5d25b69972ed","name":"panel_0","type":"visualization"},{"id":"b5bf25f0-fd10-11ec-9035-116e009bd0a8","name":"panel_1","type":"visualization"},{"id":"11e59520-fd12-11ec-9a90-254c4fa54ea5","name":"panel_2","type":"visualization"},{"id":"c2b441a0-fd10-11ec-9035-116e009bd0a8","name":"panel_3","type":"visualization"},{"id":"48bfa2c0-fd12-11ec-9035-116e009bd0a8","name":"panel_4","type":"visualization"},{"id":"87d9cf80-fd12-11ec-9035-116e009bd0a8","name":"panel_5","type":"visualization"}],"type":"dashboard","updated_at":"2022-07-12T09:17:28.368Z","version":"WzMwMzA2LDhd"}
{"exportedCount":7,"missingRefCount":0,"missingReferences":[]}
